examples/synth/counter.vcd
$date
	Mon Mar 24 11:05:22 2025
$end
$version
	Icarus Verilog
$end
$timescale
	1ns
$end
$scope module counter_tb $end
$scope module counter0 $end
$var wire 1 ! clk $end
$var wire 1 " rst $end
$var wire 1 # pulse8 $end
$var wire 1 $ pulse4 $end
$var wire 1 % pulse2 $end
$var wire 1 & pulse16 $end
$var wire 1 ' \cnt[3] $end
$var wire 1 ( \cnt[2] $end
$var wire 1 ) \cnt[1] $end
$var wire 1 * _05_ $end
$var wire 1 + _04_ $end
$var wire 1 , _03_ $end
$var wire 1 - _02_ $end
$var wire 1 . _01_ $end
$var wire 1 / _00_ $end
$scope module _06_ $end
$var wire 1 0 VGND $end
$var wire 1 1 VNB $end
$var wire 1 2 VPB $end
$var wire 1 3 VPWR $end
$var wire 1 / Y $end
$var wire 1 % A $end
$scope module base $end
$var wire 1 / Y $end
$var wire 1 4 not0_out_Y $end
$var wire 1 % A $end
$upscope $end
$upscope $end
$scope module _07_ $end
$var wire 1 5 VGND $end
$var wire 1 6 VNB $end
$var wire 1 7 VPB $end
$var wire 1 8 VPWR $end
$var wire 1 , Y $end
$var wire 1 ) C $end
$var wire 1 ( B $end
$var wire 1 % A $end
$scope module base $end
$var wire 1 , Y $end
$var wire 1 9 nand0_out_Y $end
$var wire 1 ) C $end
$var wire 1 ( B $end
$var wire 1 % A $end
$upscope $end
$upscope $end
$scope module _08_ $end
$var wire 1 , B $end
$var wire 1 : VGND $end
$var wire 1 ; VNB $end
$var wire 1 < VPB $end
$var wire 1 = VPWR $end
$var wire 1 . Y $end
$var wire 1 ' A $end
$scope module base $end
$var wire 1 , B $end
$var wire 1 . Y $end
$var wire 1 > xnor0_out_Y $end
$var wire 1 ' A $end
$upscope $end
$upscope $end
$scope module _09_ $end
$var wire 1 " A $end
$var wire 1 ? VGND $end
$var wire 1 @ VNB $end
$var wire 1 A VPB $end
$var wire 1 B VPWR $end
$var wire 1 - Y $end
$scope module base $end
$var wire 1 " A $end
$var wire 1 - Y $end
$var wire 1 C not0_out_Y $end
$upscope $end
$upscope $end
$scope module _10_ $end
$var wire 1 D VGND $end
$var wire 1 E VNB $end
$var wire 1 F VPB $end
$var wire 1 G VPWR $end
$var wire 1 & X $end
$var wire 1 $ C $end
$var wire 1 ( B $end
$var wire 1 ' A $end
$scope module base $end
$var wire 1 & X $end
$var wire 1 H and0_out_X $end
$var wire 1 $ C $end
$var wire 1 ( B $end
$var wire 1 ' A $end
$upscope $end
$upscope $end
$scope module _11_ $end
$var wire 1 I VGND $end
$var wire 1 J VNB $end
$var wire 1 K VPB $end
$var wire 1 L VPWR $end
$var wire 1 + SUM $end
$var wire 1 $ COUT $end
$var wire 1 % B $end
$var wire 1 ) A $end
$scope module base $end
$var wire 1 $ COUT $end
$var wire 1 + SUM $end
$var wire 1 M and0_out_COUT $end
$var wire 1 N xor0_out_SUM $end
$var wire 1 % B $end
$var wire 1 ) A $end
$upscope $end
$upscope $end
$scope module _12_ $end
$var wire 1 $ B $end
$var wire 1 O VGND $end
$var wire 1 P VNB $end
$var wire 1 Q VPB $end
$var wire 1 R VPWR $end
$var wire 1 * SUM $end
$var wire 1 # COUT $end
$var wire 1 ( A $end
$scope module base $end
$var wire 1 $ B $end
$var wire 1 # COUT $end
$var wire 1 * SUM $end
$var wire 1 S and0_out_COUT $end
$var wire 1 T xor0_out_SUM $end
$var wire 1 ( A $end
$upscope $end
$upscope $end
$scope module cnt[0]$_DFF_PP0_ $end
$var wire 1 ! CLK $end
$var wire 1 / D $end
$var wire 1 - RESET_B $end
$var wire 1 U VGND $end
$var wire 1 V VNB $end
$var wire 1 W VPB $end
$var wire 1 X VPWR $end
$var wire 1 % Q $end
$scope module base $end
$var wire 1 ! CLK $end
$var wire 1 / D $end
$var wire 1 % Q $end
$var wire 1 Y RESET $end
$var wire 1 - RESET_B $end
$var wire 1 Z buf_Q $end
$scope module dff0 $end
$var wire 1 ! CLK $end
$var wire 1 / D $end
$var wire 1 Y RESET $end
$var reg 1 Z Q $end
$upscope $end
$upscope $end
$upscope $end
$scope module cnt[1]$_DFF_PP0_ $end
$var wire 1 ! CLK $end
$var wire 1 + D $end
$var wire 1 - RESET_B $end
$var wire 1 [ VGND $end
$var wire 1 \ VNB $end
$var wire 1 ] VPB $end
$var wire 1 ^ VPWR $end
$var wire 1 ) Q $end
$scope module base $end
$var wire 1 ! CLK $end
$var wire 1 + D $end
$var wire 1 ) Q $end
$var wire 1 _ RESET $end
$var wire 1 - RESET_B $end
$var wire 1 ` buf_Q $end
$scope module dff0 $end
$var wire 1 ! CLK $end
$var wire 1 + D $end
$var wire 1 _ RESET $end
$var reg 1 ` Q $end
$upscope $end
$upscope $end
$upscope $end
$scope module cnt[2]$_DFF_PP0_ $end
$var wire 1 ! CLK $end
$var wire 1 * D $end
$var wire 1 - RESET_B $end
$var wire 1 a VGND $end
$var wire 1 b VNB $end
$var wire 1 c VPB $end
$var wire 1 d VPWR $end
$var wire 1 ( Q $end
$scope module base $end
$var wire 1 ! CLK $end
$var wire 1 * D $end
$var wire 1 ( Q $end
$var wire 1 e RESET $end
$var wire 1 - RESET_B $end
$var wire 1 f buf_Q $end
$scope module dff0 $end
$var wire 1 ! CLK $end
$var wire 1 * D $end
$var wire 1 e RESET $end
$var reg 1 f Q $end
$upscope $end
$upscope $end
$upscope $end
$scope module cnt[3]$_DFF_PP0_ $end
$var wire 1 ! CLK $end
$var wire 1 . D $end
$var wire 1 - RESET_B $end
$var wire 1 g VGND $end
$var wire 1 h VNB $end
$var wire 1 i VPB $end
$var wire 1 j VPWR $end
$var wire 1 ' Q $end
$scope module base $end
$var wire 1 ! CLK $end
$var wire 1 . D $end
$var wire 1 ' Q $end
$var wire 1 k RESET $end
$var wire 1 - RESET_B $end
$var wire 1 l buf_Q $end
$scope module dff0 $end
$var wire 1 ! CLK $end
$var wire 1 . D $end
$var wire 1 k RESET $end
$var reg 1 l Q $end
$upscope $end
$upscope $end
$upscope $end
$upscope $end
$upscope $end
$enddefinitions $end
$comment Show the parameter values. $end
$dumpall
$end
#0
$dumpvars
0l
1k
1j
1i
0h
0g
0f
1e
1d
1c
0b
0a
0`
1_
1^
1]
0\
0[
0Z
1Y
1X
1W
0V
0U
0T
0S
1R
1Q
0P
0O
0N
0M
1L
1K
0J
0I
0H
1G
1F
0E
0D
0C
1B
1A
0@
0?
0>
1=
1<
0;
0:
19
18
17
06
05
14
13
12
01
00
1/
0.
0-
1,
0+
0*
0)
0(
0'
0&
0%
0$
0#
1"
0!
$end
#1
1!
#2
0Y
0_
0e
0k
1-
1C
0!
0"
#3
1+
0/
1N
04
1%
1Z
1!
#4
0!
#5
1/
14
0%
1)
0Z
1`
1!
#6
0!
#7
1*
1T
0+
1$
0/
0N
1M
04
1%
1Z
1!
#8
0!
#9
1/
0$
1*
0#
14
0M
1T
0S
0%
0)
1(
0Z
0`
1f
1!
#10
0!
#11
1+
0/
1N
04
1%
1Z
1!
#12
0!
#13
1/
14
0%
1)
0Z
1`
1!
#14
0!
#15
1#
0*
1.
1S
0T
1>
0+
1$
0,
0/
0N
1M
09
04
1%
1Z
1!
#16
0!
#17
1/
0$
0*
0#
1,
1.
14
0M
0T
0S
19
1>
0%
0)
0(
1'
0Z
0`
0f
1l
1!
#18
0!
#19
1+
0/
1N
04
1%
1Z
1!
#20
0!
#21
1/
14
0%
1)
0Z
1`
1!
#22
0!
#23
1*
1T
0+
1$
0/
0N
1M
04
1%
1Z
1!
#24
0!
#25
1/
0$
1*
0#
0&
14
0M
1T
0S
0H
0%
0)
1(
0Z
0`
1f
1!
#26
0!
#27
1+
0/
1N
04
1%
1Z
1!
#28
0!
#29
1/
14
0%
1)
0Z
1`
1!
#30
0!
#31
1#
0*
1&
0.
1S
0T
1H
0>
0+
1$
0,
0/
0N
1M
09
04
1%
1Z
1!
#32
0!
#33
1/
0$
0*
0#
1,
0&
0.
14
0M
0T
0S
19
0H
0>
0%
0)
0(
0'
0Z
0`
0f
0l
1!
#34
0!
#35
1+
0/
1N
04
1%
1Z
1!
#36
0!
#37
1/
14
0%
1)
0Z
1`
1!
#38
0!
#39
1*
1T
0+
1$
0/
0N
1M
04
1%
1Z
1!
#40
0!
#41
1/
0$
1*
0#
14
0M
1T
0S
0%
0)
1(
0Z
0`
1f
1!
#42
0!
#43
1+
0/
1N
04
1%
1Z
1!
#44
0!
#45
1/
14
0%
1)
0Z
1`
1!
#46
0!
#47
1#
0*
1.
1S
0T
1>
0+
1$
0,
0/
0N
1M
09
04
1%
1Z
1!
#48
0!
#49
1/
0$
0*
0#
1,
1.
14
0M
0T
0S
19
1>
0%
0)
0(
1'
0Z
0`
0f
1l
1!
#50
0!
#51
1+
0/
1N
04
1%
1Z
1!
#52
0!
#53
1/
14
0%
1)
0Z
1`
1!
#54
0!
#55
1*
1T
0+
1$
0/
0N
1M
04
1%
1Z
1!
#56
0!
#57
1/
0$
1*
0#
0&
14
0M
1T
0S
0H
0%
0)
1(
0Z
0`
1f
1!
#58
0!
#59
1+
0/
1N
04
1%
1Z
1!
#60
0!
#61
1/
14
0%
1)
0Z
1`
1!
#62
0!
#63
1#
0*
1&
0.
1S
0T
1H
0>
0+
1$
0,
0/
0N
1M
09
04
1%
1Z
1!
#64
0!
#65
1/
0$
0*
0#
1,
0&
0.
14
0M
0T
0S
19
0H
0>
0%
0)
0(
0'
0Z
0`
0f
0l
1!
#66
0!
#67
1+
0/
1N
04
1%
1Z
1!
#68
0!
#69
1/
14
0%
1)
0Z
1`
1!
#70
0!
#71
1*
1T
0+
1$
0/
0N
1M
04
1%
1Z
1!
#72
0!
#73
1/
0$
1*
0#
14
0M
1T
0S
0%
0)
1(
0Z
0`
1f
1!
#74
0!
#75
1+
0/
1N
04
1%
1Z
1!
#76
0!
#77
1/
14
0%
1)
0Z
1`
1!
#78
0!
#79
1#
0*
1.
1S
0T
1>
0+
1$
0,
0/
0N
1M
09
04
1%
1Z
1!
#80
0!
#81
1/
0$
0*
0#
1,
1.
14
0M
0T
0S
19
1>
0%
0)
0(
1'
0Z
0`
0f
1l
1!
#82
0!
#83
1+
0/
1N
04
1%
1Z
1!
#84
0!
#85
1/
14
0%
1)
0Z
1`
1!
#86
0!
#87
1*
1T
0+
1$
0/
0N
1M
04
1%
1Z
1!
#88
0!
#89
1/
0$
1*
0#
0&
14
0M
1T
0S
0H
0%
0)
1(
0Z
0`
1f
1!
#90
0!
#91
1+
0/
1N
04
1%
1Z
1!
#92
0!
#93
1/
14
0%
1)
0Z
1`
1!
#94
0!
#95
1#
0*
1&
0.
1S
0T
1H
0>
0+
1$
0,
0/
0N
1M
09
04
1%
1Z
1!
#96
0!
#97
1/
0$
0*
0#
1,
0&
0.
14
0M
0T
0S
19
0H
0>
0%
0)
0(
0'
0Z
0`
0f
0l
1!
#98
0!
#99
1+
0/
1N
04
1%
1Z
1!
#100
0!
#101
1/
14
0%
1)
0Z
1`
1!
#102
0!
#103
1*
1T
0+
1$
0/
0N
1M
04
1%
1Z
1!
#104
0!
#105
1/
0$
1*
0#
14
0M
1T
0S
0%
0)
1(
0Z
0`
1f
1!
#106
0!
#107
1+
0/
1N
04
1%
1Z
1!
#108
0!
#109
1/
14
0%
1)
0Z
1`
1!
#110
0!
#111
1#
0*
1.
1S
0T
1>
0+
1$
0,
0/
0N
1M
09
04
1%
1Z
1!
#112
0!
#113
1/
0$
0*
0#
1,
1.
14
0M
0T
0S
19
1>
0%
0)
0(
1'
0Z
0`
0f
1l
1!
#114
0!
#115
1+
0/
1N
04
1%
1Z
1!
#116
0!
#117
1/
14
0%
1)
0Z
1`
1!
#118
0!
#119
1*
1T
0+
1$
0/
0N
1M
04
1%
1Z
1!
#120
0!
#121
1/
0$
1*
0#
0&
14
0M
1T
0S
0H
0%
0)
1(
0Z
0`
1f
1!
#122
0!
#123
1+
0/
1N
04
1%
1Z
1!
#124
0!
#125
1/
14
0%
1)
0Z
1`
1!
#126
0!
#127
1#
0*
1&
0.
1S
0T
1H
0>
0+
1$
0,
0/
0N
1M
09
04
1%
1Z
1!
#128
0!
#129
1/
0$
0*
0#
1,
0&
0.
14
0M
0T
0S
19
0H
0>
0%
0)
0(
0'
0Z
0`
0f
0l
1!
#130
0!
#131
1+
0/
1N
04
1%
1Z
1!
#132
0!
#133
1/
14
0%
1)
0Z
1`
1!
#134
0!
#135
1*
1T
0+
1$
0/
0N
1M
04
1%
1Z
1!
#136
0!
#137
1/
0$
1*
0#
14
0M
1T
0S
0%
0)
1(
0Z
0`
1f
1!
#138
0!
#139
1+
0/
1N
04
1%
1Z
1!
#140
0!
#141
1/
14
0%
1)
0Z
1`
1!
#142
0!
#143
1#
0*
1.
1S
0T
1>
0+
1$
0,
0/
0N
1M
09
04
1%
1Z
1!
#144
0!
#145
1/
0$
0*
0#
1,
1.
14
0M
0T
0S
19
1>
0%
0)
0(
1'
0Z
0`
0f
1l
1!
#146
0!
#147
1+
0/
1N
04
1%
1Z
1!
#148
0!
#149
1/
14
0%
1)
0Z
1`
1!
#150
0!
#151
1*
1T
0+
1$
0/
0N
1M
04
1%
1Z
1!
#152
0!
#153
1/
0$
1*
0#
0&
14
0M
1T
0S
0H
0%
0)
1(
0Z
0`
1f
1!
#154
0!
#155
1+
0/
1N
04
1%
1Z
1!
#156
0!
#157
1/
14
0%
1)
0Z
1`
1!
#158
0!
#159
1#
0*
1&
0.
1S
0T
1H
0>
0+
1$
0,
0/
0N
1M
09
04
1%
1Z
1!
#160
0!
#161
1/
0$
0*
0#
1,
0&
0.
14
0M
0T
0S
19
0H
0>
0%
0)
0(
0'
0Z
0`
0f
0l
1!
#162
0!
#163
1+
0/
1N
04
1%
1Z
1!
#164
0!
#165
1/
14
0%
1)
0Z
1`
1!
#166
0!
#167
1*
1T
0+
1$
0/
0N
1M
04
1%
1Z
1!
#168
0!
#169
1/
0$
1*
0#
14
0M
1T
0S
0%
0)
1(
0Z
0`
1f
1!
#170
0!
#171
1+
0/
1N
04
1%
1Z
1!
#172
0!
#173
1/
14
0%
1)
0Z
1`
1!
#174
0!
#175
1#
0*
1.
1S
0T
1>
0+
1$
0,
0/
0N
1M
09
04
1%
1Z
1!
#176
0!
#177
1/
0$
0*
0#
1,
1.
14
0M
0T
0S
19
1>
0%
0)
0(
1'
0Z
0`
0f
1l
1!
#178
0!
#179
1+
0/
1N
04
1%
1Z
1!
#180
0!
#181
1/
14
0%
1)
0Z
1`
1!
#182
0!
#183
1*
1T
0+
1$
0/
0N
1M
04
1%
1Z
1!
#184
0!
#185
1/
0$
1*
0#
0&
14
0M
1T
0S
0H
0%
0)
1(
0Z
0`
1f
1!
#186
0!
#187
1+
0/
1N
04
1%
1Z
1!
#188
0!
#189
1/
14
0%
1)
0Z
1`
1!
#190
0!
#191
1#
0*
1&
0.
1S
0T
1H
0>
0+
1$
0,
0/
0N
1M
09
04
1%
1Z
1!
#192
0!
#193
1/
0$
0*
0#
1,
0&
0.
14
0M
0T
0S
19
0H
0>
0%
0)
0(
0'
0Z
0`
0f
0l
1!
#194
0!
#195
1+
0/
1N
04
1%
1Z
1!
#196
0!
#197
1/
14
0%
1)
0Z
1`
1!
#198
0!
#199
1*
1T
0+
1$
0/
0N
1M
04
1%
1Z
1!
#200
0!
#201
1/
0$
1*
0#
14
0M
1T
0S
0%
0)
1(
0Z
0`
1f
1!
#202
0!
#203
1+
0/
1N
04
1%
1Z
1!
#204
0!
#205
1/
14
0%
1)
0Z
1`
1!
#206
0!
#207
1#
0*
1.
1S
0T
1>
0+
1$
0,
0/
0N
1M
09
04
1%
1Z
1!
#208
0!
#209
1/
0$
0*
0#
1,
1.
14
0M
0T
0S
19
1>
0%
0)
0(
1'
0Z
0`
0f
1l
1!
#210
0!
#211
1+
0/
1N
04
1%
1Z
1!
#212
0!
#213
1/
14
0%
1)
0Z
1`
1!
#214
0!
#215
1*
1T
0+
1$
0/
0N
1M
04
1%
1Z
1!
#216
0!
#217
1/
0$
1*
0#
0&
14
0M
1T
0S
0H
0%
0)
1(
0Z
0`
1f
1!
#218
0!
#219
1+
0/
1N
04
1%
1Z
1!
#220
0!
#221
1/
14
0%
1)
0Z
1`
1!
#222
0!
#223
1#
0*
1&
0.
1S
0T
1H
0>
0+
1$
0,
0/
0N
1M
09
04
1%
1Z
1!
#224
0!
#225
1/
0$
0*
0#
1,
0&
0.
14
0M
0T
0S
19
0H
0>
0%
0)
0(
0'
0Z
0`
0f
0l
1!
#226
0!
#227
1+
0/
1N
04
1%
1Z
1!
#228
0!
#229
1/
14
0%
1)
0Z
1`
1!
#230
0!
#231
1*
1T
0+
1$
0/
0N
1M
04
1%
1Z
1!
#232
0!
#233
1/
0$
1*
0#
14
0M
1T
0S
0%
0)
1(
0Z
0`
1f
1!
#234
0!
#235
1+
0/
1N
04
1%
1Z
1!
#236
0!
#237
1/
14
0%
1)
0Z
1`
1!
#238
0!
#239
1#
0*
1.
1S
0T
1>
0+
1$
0,
0/
0N
1M
09
04
1%
1Z
1!
#240
0!
#241
1/
0$
0*
0#
1,
1.
14
0M
0T
0S
19
1>
0%
0)
0(
1'
0Z
0`
0f
1l
1!
#242
0!
#243
1+
0/
1N
04
1%
1Z
1!
#244
0!
#245
1/
14
0%
1)
0Z
1`
1!
#246
0!
#247
1*
1T
0+
1$
0/
0N
1M
04
1%
1Z
1!
#248
0!
#249
1/
0$
1*
0#
0&
14
0M
1T
0S
0H
0%
0)
1(
0Z
0`
1f
1!
#250
0!
#251
1+
0/
1N
04
1%
1Z
1!
#252
0!
#253
1/
14
0%
1)
0Z
1`
1!
#254
0!
#255
1#
0*
1&
0.
1S
0T
1H
0>
0+
1$
0,
0/
0N
1M
09
04
1%
1Z
1!
#256
0!
#257
1/
0$
0*
0#
1,
0&
0.
14
0M
0T
0S
19
0H
0>
0%
0)
0(
0'
0Z
0`
0f
0l
1!
#258
0!
#259
1+
0/
1N
04
1%
1Z
1!
#260
0!
#261
1/
14
0%
1)
0Z
1`
1!
#262
0!
#263
1*
1T
0+
1$
0/
0N
1M
04
1%
1Z
1!
#264
0!
#265
1/
0$
1*
0#
14
0M
1T
0S
0%
0)
1(
0Z
0`
1f
1!
#266
0!
#267
1+
0/
1N
04
1%
1Z
1!
#268
0!
#269
1/
14
0%
1)
0Z
1`
1!
#270
0!
#271
1#
0*
1.
1S
0T
1>
0+
1$
0,
0/
0N
1M
09
04
1%
1Z
1!
#272
0!
#273
1/
0$
0*
0#
1,
1.
14
0M
0T
0S
19
1>
0%
0)
0(
1'
0Z
0`
0f
1l
1!
#274
0!
#275
1+
0/
1N
04
1%
1Z
1!
#276
0!
#277
1/
14
0%
1)
0Z
1`
1!
#278
0!
#279
1*
1T
0+
1$
0/
0N
1M
04
1%
1Z
1!
#280
0!
#281
1/
0$
1*
0#
0&
14
0M
1T
0S
0H
0%
0)
1(
0Z
0`
1f
1!
#282
0!
#283
1+
0/
1N
04
1%
1Z
1!
#284
0!
#285
1/
14
0%
1)
0Z
1`
1!
#286
0!
#287
1#
0*
1&
0.
1S
0T
1H
0>
0+
1$
0,
0/
0N
1M
09
04
1%
1Z
1!
#288
0!
#289
1/
0$
0*
0#
1,
0&
0.
14
0M
0T
0S
19
0H
0>
0%
0)
0(
0'
0Z
0`
0f
0l
1!
#290
0!
#291
1+
0/
1N
04
1%
1Z
1!
#292
0!
#293
1/
14
0%
1)
0Z
1`
1!
#294
0!
#295
1*
1T
0+
1$
0/
0N
1M
04
1%
1Z
1!
#296
0!
#297
1/
0$
1*
0#
14
0M
1T
0S
0%
0)
1(
0Z
0`
1f
1!
#298
0!
#299
1+
0/
1N
04
1%
1Z
1!
